<?xml version="1.0" encoding="utf-8"?>
<!-- Generator: Adobe Illustrator 20.1.0, SVG Export Plug-In . SVG Version: 6.00 Build 0)  -->
<!DOCTYPE svg PUBLIC "-//W3C//DTD SVG 1.1//EN" "http://www.w3.org/Graphics/SVG/1.1/DTD/svg11.dtd">
<svg version="1.1" id="Layer_1" xmlns="http://www.w3.org/2000/svg" xmlns:xlink="http://www.w3.org/1999/xlink" x="0px" y="0px"
	 viewBox="0 0 16 16" style="enable-background:new 0 0 16 16;" xml:space="preserve" fill="#06429e">
<g>
	<path d="M8.4,6.5c0.6,0,1,0.4,0.8,1.1C9.2,8,8.9,8.5,8.7,9C8.5,9.5,8.3,10,8.1,10.6c0,0.1-0.1,0.3-0.1,0.4c0,0.1,0,0.2,0.1,0.2
		s0.2,0,0.2,0c0.1-0.1,0.3-0.2,0.4-0.3c0.2-0.2,0.4-0.4,0.6-0.6c0.1-0.1,0.1-0.2,0.2-0.1c0.1,0.1,0.1,0.2,0.1,0.3s-0.1,0.2-0.1,0.2
		C9,11.2,8.4,11.7,7.6,12c-0.3,0.1-0.5,0.2-0.8,0.2c-0.4,0-0.7-0.3-0.6-0.7c0-0.4,0.1-0.7,0.3-1.1c0.4-0.9,0.7-1.9,1.1-2.8
		c0.1-0.1,0.2-0.3,0-0.4c-0.3-0.1-0.4,0-0.4,0.1C6.8,7.6,6.7,7.8,6.5,8C6.4,8.1,6.4,8.2,6.2,8.3C6.1,8.3,6,8.4,6,8.3
		C6,8.2,6,8.1,6,8.1V8c0.6-0.6,1.2-1.2,2-1.4C8.1,6.5,8.3,6.5,8.4,6.5z"/>
	<path d="M8.2,5.2c0-0.6,0.6-1.2,1.2-1C9.9,4.4,10,4.9,10,5.3C9.8,5.9,9.2,6.1,8.6,6C8.4,5.9,8.2,5.6,8.2,5.2z"/>
</g>
<path d="M8,0C3.6,0,0,3.6,0,8s3.6,8,8,8s8-3.6,8-8S12.4,0,8,0z M8,14.8c-3.8,0-6.9-3.1-6.9-6.9S4.2,1.1,8,1.1s6.9,3.1,6.9,6.9
	S11.8,14.8,8,14.8z"/>
</svg>
